[
	{
		"author": "Madeline Kramer",
		"release_date": "06.03.18",
		"genre": "Drama",
		"label": "elementum at, egestas a, scelerisque sed, sapien. Nunc pulvinar arcu"
	},
	{
		"author": "Georgia Sexton",
		"release_date": "25.08.17",
		"genre": "Detective",
		"label": "tempor lorem, eget mollis lectus pede et risus. Quisque"
	},
	{
		"author": "Octavia Harrell",
		"release_date": "10.08.17",
		"genre": "Drama",
		"label": "malesuada vel, convallis in, cursus et, eros. Proin"
	},
	{
		"author": "Dahlia Hewitt",
		"release_date": "09.06.18",
		"genre": "Drama",
		"label": "nec tempus scelerisque, lorem ipsum sodales purus,"
	},
	{
		"author": "Axel Byers",
		"release_date": "15.03.18",
		"genre": "Drama",
		"label": "enim, gravida sit amet, dapibus id, blandit at, nisi."
	},
	{
		"author": "Zelenia Mcgee",
		"release_date": "29.06.16",
		"genre": "Fiction",
		"label": "ac urna. Ut tincidunt vehicula risus. Nulla"
	},
	{
		"author": "Maxine Duncan",
		"release_date": "09.08.16",
		"genre": "Fiction",
		"label": "Cras convallis convallis"
	},
	{
		"author": "Randall Castro",
		"release_date": "18.01.18",
		"genre": "Drama",
		"label": "Nam tempor diam"
	},
	{
		"author": "August Simpson",
		"release_date": "14.03.18",
		"genre": "Fiction",
		"label": "In mi pede, nonummy ut, molestie in,"
	},
	{
		"author": "Stone Levine",
		"release_date": "25.09.16",
		"genre": "Detective",
		"label": "Suspendisse ac metus vitae velit"
	},
	{
		"author": "Zahir Mills",
		"release_date": "20.10.17",
		"genre": "Drama",
		"label": "aliquam eros turpis non"
	},
	{
		"author": "Martin Haney",
		"release_date": "11.09.16",
		"genre": "Fiction",
		"label": "nascetur ridiculus mus. Proin vel arcu"
	},
	{
		"author": "Deanna Vinson",
		"release_date": "09.12.16",
		"genre": "Drama",
		"label": "cursus non, egestas a, dui. Cras pellentesque. Sed dictum. Proin"
	},
	{
		"author": "Harlan Banks",
		"release_date": "03.06.17",
		"genre": "Fiction",
		"label": "sit amet, consectetuer adipiscing elit. Etiam laoreet, libero"
	},
	{
		"author": "Steel Snider",
		"release_date": "14.02.18",
		"genre": "Drama",
		"label": "Nunc ut erat. Sed nunc"
	},
	{
		"author": "Abra Page",
		"release_date": "16.02.18",
		"genre": "Detective",
		"label": "nunc, ullamcorper eu, euismod ac, fermentum vel, mauris. Integer sem"
	},
	{
		"author": "Lyle Jarvis",
		"release_date": "07.07.17",
		"genre": "Detective",
		"label": "In tincidunt congue turpis. In condimentum. Donec"
	},
	{
		"author": "Cullen Floyd",
		"release_date": "24.11.16",
		"genre": "Drama",
		"label": "Quisque purus sapien, gravida non, sollicitudin a, malesuada"
	},
	{
		"author": "Vivien Joyner",
		"release_date": "12.09.16",
		"genre": "Drama",
		"label": "Vivamus rhoncus. Donec"
	},
	{
		"author": "Burton Jacobson",
		"release_date": "14.02.17",
		"genre": "Detective",
		"label": "fringilla est. Mauris eu turpis. Nulla aliquet."
	},
	{
		"author": "Jonah Molina",
		"release_date": "04.04.17",
		"genre": "Fiction",
		"label": "vitae, posuere at, velit."
	},
	{
		"author": "Scarlett Valencia",
		"release_date": "26.12.16",
		"genre": "Drama",
		"label": "feugiat non, lobortis quis, pede. Suspendisse"
	},
	{
		"author": "Xaviera Hicks",
		"release_date": "09.03.17",
		"genre": "Fiction",
		"label": "Nullam nisl. Maecenas malesuada fringilla est. Mauris eu turpis."
	},
	{
		"author": "Nayda Mckinney",
		"release_date": "03.05.18",
		"genre": "Drama",
		"label": "a odio semper cursus. Integer mollis. Integer tincidunt"
	},
	{
		"author": "Chase Greer",
		"release_date": "03.05.18",
		"genre": "Drama",
		"label": "ac mattis ornare, lectus ante dictum mi, ac mattis"
	},
	{
		"author": "Bevis Alvarado",
		"release_date": "13.01.18",
		"genre": "Drama",
		"label": "blandit enim consequat purus. Maecenas libero est, congue a,"
	},
	{
		"author": "Nita Wolf",
		"release_date": "16.01.17",
		"genre": "Fiction",
		"label": "facilisis, magna tellus faucibus leo, in lobortis tellus justo sit"
	},
	{
		"author": "Jayme Peters",
		"release_date": "22.06.16",
		"genre": "Drama",
		"label": "cursus a, enim. Suspendisse aliquet, sem ut cursus luctus,"
	},
	{
		"author": "Riley Sexton",
		"release_date": "20.01.17",
		"genre": "Drama",
		"label": "eu, ligula. Aenean euismod mauris"
	},
	{
		"author": "Barbara Calhoun",
		"release_date": "28.07.16",
		"genre": "Drama",
		"label": "sit amet ante."
	},
	{
		"author": "Christen Harmon",
		"release_date": "16.11.16",
		"genre": "Detective",
		"label": "mattis semper, dui lectus rutrum urna, nec luctus felis"
	},
	{
		"author": "Cole Horn",
		"release_date": "10.02.17",
		"genre": "Detective",
		"label": "ut, sem. Nulla interdum. Curabitur dictum."
	},
	{
		"author": "Lareina Hinton",
		"release_date": "19.02.18",
		"genre": "Drama",
		"label": "magna. Phasellus dolor elit, pellentesque a,"
	},
	{
		"author": "Scarlet Meyers",
		"release_date": "05.09.17",
		"genre": "Detective",
		"label": "tellus sem mollis dui, in sodales elit erat vitae risus."
	},
	{
		"author": "Abraham Mitchell",
		"release_date": "12.02.17",
		"genre": "Fiction",
		"label": "posuere vulputate, lacus. Cras interdum."
	},
	{
		"author": "Lucy Woodard",
		"release_date": "13.06.18",
		"genre": "Drama",
		"label": "nec enim. Nunc ut erat."
	},
	{
		"author": "Ginger Gomez",
		"release_date": "31.08.17",
		"genre": "Detective",
		"label": "Nullam feugiat placerat velit. Quisque varius. Nam porttitor scelerisque neque."
	},
	{
		"author": "Declan Wiggins",
		"release_date": "10.04.18",
		"genre": "Detective",
		"label": "eget, dictum placerat, augue. Sed molestie."
	},
	{
		"author": "Yuri Benjamin",
		"release_date": "07.07.16",
		"genre": "Drama",
		"label": "elit elit fermentum risus, at fringilla purus"
	},
	{
		"author": "Jelani Rogers",
		"release_date": "13.09.16",
		"genre": "Detective",
		"label": "varius et, euismod et, commodo at, libero. Morbi accumsan"
	},
	{
		"author": "Iona Kennedy",
		"release_date": "27.12.16",
		"genre": "Detective",
		"label": "Sed eu eros. Nam consequat dolor vitae dolor. Donec"
	},
	{
		"author": "Palmer Boone",
		"release_date": "27.06.16",
		"genre": "Detective",
		"label": "ridiculus mus. Aenean"
	},
	{
		"author": "Porter Mcmillan",
		"release_date": "09.10.17",
		"genre": "Detective",
		"label": "mus. Aenean eget magna. Suspendisse tristique neque venenatis lacus. Etiam"
	},
	{
		"author": "Sara Moses",
		"release_date": "04.01.18",
		"genre": "Drama",
		"label": "sem ut cursus luctus, ipsum leo elementum"
	},
	{
		"author": "Dominic Caldwell",
		"release_date": "14.03.18",
		"genre": "Detective",
		"label": "molestie sodales. Mauris blandit enim consequat purus. Maecenas libero est,"
	},
	{
		"author": "Josiah Baird",
		"release_date": "09.02.18",
		"genre": "Fiction",
		"label": "Phasellus nulla. Integer vulputate, risus a"
	},
	{
		"author": "Xander Cole",
		"release_date": "13.09.16",
		"genre": "Detective",
		"label": "lacus. Cras interdum. Nunc sollicitudin commodo"
	},
	{
		"author": "Kasper Velazquez",
		"release_date": "11.01.17",
		"genre": "Fiction",
		"label": "Aliquam nisl. Nulla eu"
	},
	{
		"author": "Carson Lindsey",
		"release_date": "02.04.17",
		"genre": "Drama",
		"label": "odio, auctor vitae, aliquet nec, imperdiet"
	},
	{
		"author": "Halee Valdez",
		"release_date": "15.05.17",
		"genre": "Drama",
		"label": "eu tellus. Phasellus elit pede, malesuada vel, venenatis"
	},
	{
		"author": "Austin Mendez",
		"release_date": "03.01.17",
		"genre": "Fiction",
		"label": "tempus risus. Donec egestas. Duis ac arcu."
	},
	{
		"author": "Gay Downs",
		"release_date": "16.12.17",
		"genre": "Drama",
		"label": "lobortis risus. In mi"
	},
	{
		"author": "Barry Doyle",
		"release_date": "13.10.16",
		"genre": "Drama",
		"label": "eleifend non, dapibus rutrum, justo. Praesent luctus. Curabitur"
	},
	{
		"author": "Justine Warner",
		"release_date": "14.07.17",
		"genre": "Drama",
		"label": "fringilla mi lacinia mattis. Integer eu lacus. Quisque"
	},
	{
		"author": "Kiona Blackburn",
		"release_date": "17.05.18",
		"genre": "Detective",
		"label": "Aliquam nec enim. Nunc"
	},
	{
		"author": "Timon Patel",
		"release_date": "23.07.16",
		"genre": "Drama",
		"label": "rutrum urna, nec luctus felis purus ac tellus. Suspendisse sed"
	},
	{
		"author": "Haviva Holland",
		"release_date": "21.04.17",
		"genre": "Detective",
		"label": "Nullam scelerisque neque sed sem egestas blandit."
	},
	{
		"author": "Eagan Wallace",
		"release_date": "01.12.17",
		"genre": "Detective",
		"label": "nunc id enim."
	},
	{
		"author": "Jessica Vega",
		"release_date": "28.12.17",
		"genre": "Drama",
		"label": "quam quis diam. Pellentesque habitant morbi"
	},
	{
		"author": "Skyler Glenn",
		"release_date": "06.06.18",
		"genre": "Drama",
		"label": "leo, in lobortis tellus justo sit amet nulla."
	},
	{
		"author": "Grace Hayes",
		"release_date": "10.01.17",
		"genre": "Drama",
		"label": "non sapien molestie orci tincidunt adipiscing. Mauris molestie pharetra"
	},
	{
		"author": "Stephen Bernard",
		"release_date": "02.07.16",
		"genre": "Drama",
		"label": "Integer tincidunt aliquam arcu. Aliquam ultrices iaculis"
	},
	{
		"author": "Wanda Cabrera",
		"release_date": "13.03.18",
		"genre": "Fiction",
		"label": "nibh. Phasellus nulla. Integer vulputate,"
	},
	{
		"author": "Nerea Russo",
		"release_date": "29.07.17",
		"genre": "Drama",
		"label": "ut cursus luctus,"
	},
	{
		"author": "Iona Hines",
		"release_date": "20.07.16",
		"genre": "Fiction",
		"label": "eget nisi dictum augue malesuada malesuada."
	},
	{
		"author": "Wing Robertson",
		"release_date": "28.05.17",
		"genre": "Fiction",
		"label": "lacus pede sagittis augue, eu"
	},
	{
		"author": "Megan Patrick",
		"release_date": "21.02.17",
		"genre": "Fiction",
		"label": "Maecenas ornare egestas ligula. Nullam feugiat placerat velit. Quisque varius."
	},
	{
		"author": "Dominic Whitehead",
		"release_date": "02.10.16",
		"genre": "Fiction",
		"label": "imperdiet nec, leo. Morbi neque tellus, imperdiet non, vestibulum nec,"
	},
	{
		"author": "Nell Gardner",
		"release_date": "18.10.16",
		"genre": "Detective",
		"label": "penatibus et magnis dis parturient montes, nascetur ridiculus"
	},
	{
		"author": "Tad Hines",
		"release_date": "28.03.17",
		"genre": "Fiction",
		"label": "pharetra. Quisque ac libero"
	},
	{
		"author": "Aretha Atkinson",
		"release_date": "14.10.16",
		"genre": "Detective",
		"label": "luctus vulputate, nisi sem semper"
	},
	{
		"author": "Althea Howe",
		"release_date": "04.06.17",
		"genre": "Fiction",
		"label": "at augue id ante dictum cursus. Nunc mauris elit, dictum"
	},
	{
		"author": "Caesar Holden",
		"release_date": "03.02.17",
		"genre": "Detective",
		"label": "orci lobortis augue scelerisque mollis. Phasellus"
	},
	{
		"author": "Berk Vang",
		"release_date": "30.11.16",
		"genre": "Drama",
		"label": "commodo at, libero. Morbi accumsan laoreet ipsum. Curabitur consequat,"
	},
	{
		"author": "Hannah Maynard",
		"release_date": "26.09.16",
		"genre": "Drama",
		"label": "Integer id magna et ipsum cursus vestibulum."
	},
	{
		"author": "Kerry Hoffman",
		"release_date": "12.01.17",
		"genre": "Fiction",
		"label": "orci tincidunt adipiscing. Mauris molestie pharetra nibh. Aliquam ornare, libero"
	},
	{
		"author": "Wynter Maxwell",
		"release_date": "25.01.17",
		"genre": "Detective",
		"label": "ipsum. Curabitur consequat, lectus sit amet luctus"
	},
	{
		"author": "Thomas Bruce",
		"release_date": "05.07.17",
		"genre": "Drama",
		"label": "ut, molestie in, tempus eu, ligula. Aenean"
	},
	{
		"author": "Erin Goodwin",
		"release_date": "28.11.17",
		"genre": "Fiction",
		"label": "sagittis augue, eu tempor erat neque non"
	},
	{
		"author": "Kiayada Gomez",
		"release_date": "18.10.17",
		"genre": "Detective",
		"label": "nisl arcu iaculis enim, sit amet"
	},
	{
		"author": "Melvin Klein",
		"release_date": "29.06.16",
		"genre": "Detective",
		"label": "libero nec ligula consectetuer rhoncus. Nullam"
	},
	{
		"author": "Patience Fernandez",
		"release_date": "23.04.18",
		"genre": "Drama",
		"label": "Ut sagittis lobortis mauris. Suspendisse aliquet molestie tellus. Aenean"
	},
	{
		"author": "Nolan James",
		"release_date": "08.02.18",
		"genre": "Fiction",
		"label": "metus. In lorem. Donec elementum, lorem ut aliquam iaculis,"
	},
	{
		"author": "Miriam Grimes",
		"release_date": "12.08.17",
		"genre": "Fiction",
		"label": "Proin velit. Sed malesuada augue ut lacus. Nulla tincidunt, neque"
	},
	{
		"author": "Cecilia Cash",
		"release_date": "23.04.18",
		"genre": "Fiction",
		"label": "sagittis lobortis mauris. Suspendisse aliquet molestie tellus."
	},
	{
		"author": "Serina Jackson",
		"release_date": "27.12.17",
		"genre": "Fiction",
		"label": "tempus risus. Donec egestas. Duis ac arcu."
	},
	{
		"author": "Natalie Sutton",
		"release_date": "21.03.17",
		"genre": "Drama",
		"label": "vel, faucibus id, libero. Donec consectetuer mauris id sapien. Cras"
	},
	{
		"author": "Alana Burton",
		"release_date": "31.01.17",
		"genre": "Detective",
		"label": "nisi dictum augue malesuada"
	},
	{
		"author": "Nadine Berg",
		"release_date": "11.10.16",
		"genre": "Detective",
		"label": "interdum. Curabitur dictum. Phasellus in felis."
	},
	{
		"author": "Lareina Sosa",
		"release_date": "16.08.17",
		"genre": "Drama",
		"label": "leo. Cras vehicula aliquet libero."
	},
	{
		"author": "Omar Carter",
		"release_date": "25.04.17",
		"genre": "Fiction",
		"label": "bibendum ullamcorper. Duis cursus, diam at pretium aliquet,"
	},
	{
		"author": "Richard Lang",
		"release_date": "08.01.17",
		"genre": "Drama",
		"label": "et malesuada fames ac turpis"
	},
	{
		"author": "Mufutau Sargent",
		"release_date": "27.04.18",
		"genre": "Detective",
		"label": "erat neque non quam. Pellentesque habitant morbi tristique"
	},
	{
		"author": "Basil Fleming",
		"release_date": "04.05.17",
		"genre": "Detective",
		"label": "dignissim lacus. Aliquam rutrum lorem ac risus."
	},
	{
		"author": "Aretha Higgins",
		"release_date": "21.07.16",
		"genre": "Fiction",
		"label": "eu sem. Pellentesque ut ipsum ac mi eleifend"
	},
	{
		"author": "Ferris Livingston",
		"release_date": "03.02.18",
		"genre": "Drama",
		"label": "sit amet luctus vulputate, nisi sem"
	},
	{
		"author": "Jesse Hogan",
		"release_date": "22.04.18",
		"genre": "Fiction",
		"label": "elit fermentum risus, at fringilla purus mauris a"
	},
	{
		"author": "Zeus Sosa",
		"release_date": "25.01.17",
		"genre": "Detective",
		"label": "odio. Phasellus at augue"
	},
	{
		"author": "Oscar Wood",
		"release_date": "25.03.18",
		"genre": "Drama",
		"label": "fermentum convallis ligula. Donec"
	},
	{
		"author": "Otto Briggs",
		"release_date": "06.04.17",
		"genre": "Fiction",
		"label": "sed orci lobortis augue scelerisque mollis."
	}
] 